MyLabJournal - Data Acquisition
…
Trying out a connection to a database containing music information using RSQLite.

con <- RSQLite::dbConnect(drv    = SQLite(), 
                          dbname = "../../src/Chinook_Sqlite.sqlite") # Connect to db

print(dbListTables(con)) # Print list of available tables

#>  [1] "Album"         "Artist"        "Customer"      "Employee"     
#>  [5] "Genre"         "Invoice"       "InvoiceLine"   "MediaType"    
#>  [9] "Playlist"      "PlaylistTrack" "Track"

album_tbl <- tbl(con, "Album") %>% collect() # Retrieve "Album" table into local storage
print(album_tbl)

#> # A tibble: 347 x 3
#>    AlbumId Title                                 ArtistId
#>      <int> <chr>                                    <int>
#>  1       1 For Those About To Rock We Salute You        1
#>  2       2 Balls to the Wall                            2
#>  3       3 Restless and Wild                            2
#>  4       4 Let There Be Rock                            1
#>  5       5 Big Ones                                     3
#>  6       6 Jagged Little Pill                           4
#>  7       7 Facelift                                     5
#>  8       8 Warner 25 Anos                               6
#>  9       9 Plays Metallica By Four Cellos               7
#> 10      10 Audioslave                                   8
#> # i 337 more rows
…
url <- "https://en.wikipedia.org/wiki/List_of_S%26P_500_companies"

sp_500 <- url %>%
  # read the HTML from the webpage
  read_html() %>%
  # Get the nodes with the id
  html_nodes(css = "#constituents") %>%
  # html_nodes(xpath = "//*[@id='constituents']"") %>% 
  # Extract the table and turn the list into a tibble
  html_table() %>% 
  .[[1]] %>% 
  as_tibble()
print(sp_500)

#> # A tibble: 503 x 8
#>    Symbol Security      `GICS Sector` `GICS Sub-Industry` Headquarters Locatio~1
#>    <chr>  <chr>         <chr>         <chr>               <chr>                 
#>  1 MMM    3M            Industrials   Industrial Conglom~ Saint Paul, Minnesota 
#>  2 AOS    A. O. Smith   Industrials   Building Products   Milwaukee, Wisconsin  
#>  3 ABT    Abbott        Health Care   Health Care Equipm~ North Chicago, Illino~
#>  4 ABBV   AbbVie        Health Care   Pharmaceuticals     North Chicago, Illino~
#>  5 ACN    Accenture     Information ~ IT Consulting & Ot~ Dublin, Ireland       
#>  6 ATVI   Activision B~ Communicatio~ Interactive Home E~ Santa Monica, Califor~
#>  7 ADM    ADM           Consumer Sta~ Agricultural Produ~ Chicago, Illinois     
#>  8 ADBE   Adobe Inc.    Information ~ Application Softwa~ San Jose, California  
#>  9 ADP    ADP           Industrials   Human Resource & E~ Roseland, New Jersey  
#> 10 AAP    Advance Auto~ Consumer Dis~ Automotive Retail   Raleigh, North Caroli~
#> # i 493 more rows
#> # i abbreviated name: 1: `Headquarters Location`
#> # i 3 more variables: `Date added` <chr>, CIK <int>, Founded <chr>
…
